-------------------------------------------------------------------------------
Test set: edu.mapreduce.IpLogsMapReduceTest
-------------------------------------------------------------------------------
Tests run: 5, Failures: 0, Errors: 0, Skipped: 0, Time elapsed: 1.445 sec
